{
  "project_info": {
    "project_number": "633870894770",
    "firebase_url": "https://kible-ca49c.firebaseio.com",
    "project_id": "kible-ca49c",
    "storage_bucket": "kible-ca49c.appspot.com"
  },
  "client": [
    {
      "client_info": {
        "mobilesdk_app_id": "1:633870894770:android:d41effe8a4e05d99",
        "android_client_info": {
          "package_name": "com.example.win10.kible"
        }
      },
      "oauth_client": [
        {
          "client_id": "633870894770-k4n1mq71h6s90smmo199h9k8jhrqjh0m.apps.googleusercontent.com",
          "client_type": 1,
          "android_info": {
            "package_name": "com.example.win10.kible",
            "certificate_hash": "8cdd5359c760ccc41526226b6eda047626e9fcd9"
          }
        },
        {
          "client_id": "633870894770-pc1pgqk7m0126p4aq84mq46f42i6bhva.apps.googleusercontent.com",
          "client_type": 3
        }
      ],
      "api_key": [
        {
          "current_key": "AIzaSyDO7j11kNvfLK7r0IgiDHBQc2UGtGpzVOM"
        }
      ],
      "services": {
        "appinvite_service": {
          "other_platform_oauth_client": [
            {
              "client_id": "633870894770-pc1pgqk7m0126p4aq84mq46f42i6bhva.apps.googleusercontent.com",
              "client_type": 3
            }
          ]
        }
      }
    }
  ],
  "configuration_version": "1"
}